,Country,Year,% Renewables,GDP per capita,CO2 in kton
0,China,1990,34.0836125264534,730.7724890448219,2460520.333
1,United States,1990,4.1754627232842,36312.4141825874,4878932.667
2,India,1990,58.652862570212605,536.162785952242,690514.0
3,Russia,1990,,,
4,Japan,1990,4.5506642011260094,37906.1637024172,1094533.0
5,Germany,1990,2.0980337950929497,32337.101022619703,1013529.0
6,Iran,1990,,,211115.6667
7,South Korea,1990,,,246920.6667
8,Canada,1990,22.020749552638396,36489.2663535682,450035.6667
9,South Africa,1990,16.6278199788405,5934.2241161519605,333483.3333
10,Indonesia,1990,58.5975460153658,1707.5979177034699,149552.3333
11,Saudi Arabia,1990,0.0379846759992113,18002.738727261498,217928.3333
12,Mexico,1990,14.413301016317101,7257.93108174907,314387.3333
13,United Kingdom,1990,0.651133946565605,28691.2928745059,570166.6667
14,Brazil,1990,49.864677577075796,7986.045872969041,208868.0
15,Italy,1990,3.78146404409853,30839.278333372997,425216.0
16,Australia,1990,8.009578620950121,35827.0967196418,287305.3333
17,France,1990,10.408020043027301,32596.0051876225,398992.0
18,Poland,1990,2.5014848680334802,5946.67084991613,366740.0
19,Ukraine,1990,0.650123019973262,3965.38272260404,
20,Turkey,1990,24.5749195501593,6774.40675010578,145841.6667
21,Spain,1990,10.5444316993277,22464.7329153987,218845.0
22,Thailand,1990,33.639129814491504,2502.7127179100103,95824.66667
23,Taiwan,1990,,,125928.0
24,Kazakhstan,1990,1.40771700550497,5890.27604343,
25,Egypt,1990,,,75936.66667
26,Malaysia,1990,11.980542810546,4534.79516750057,56587.66667
27,Venezuela,1990,,,122151.3333
28,Argentina,1990,8.92290362021342,5939.75691560173,112603.3333
29,Netherlands,1990,1.3240574126078,35483.299495835,164112.6667
30,China,1991,33.258474647417195,787.867435156269,2584303.333
31,United States,1991,4.50791992581387,35803.868421343905,4869795.333
32,India,1991,57.6047930341862,530.894738000648,737784.6667
33,Russia,1991,,,
34,Japan,1991,4.73056919169422,39044.9272685783,1100425.333
35,Germany,1991,1.9886326507490102,33742.2192171049,930772.3333
36,Iran,1991,,,228015.3333
37,South Korea,1991,,,261459.0
38,Canada,1991,22.1978365907787,35231.021206047204,449012.6667
39,South Africa,1991,17.4661170072339,5739.73331217938,346305.6667
40,Indonesia,1991,57.828739467077895,1794.1887987743698,179714.3333
41,Saudi Arabia,1991,0.0366998581446208,20040.4957041795,267743.6667
42,Mexico,1991,13.1955125842115,7415.50601032375,326315.0
43,United Kingdom,1991,0.608264213838795,28291.921960378197,593769.0
44,Brazil,1991,48.9381578888622,7966.79646758777,219310.6667
45,Italy,1991,4.669413305130849,31292.053094606803,434907.0
46,Australia,1991,8.24547234154988,35240.582540066,281504.6667
47,France,1991,11.012222457769498,32908.5579690992,427628.6667
48,Poland,1991,2.06466856887001,5509.90030429047,361559.0
49,Ukraine,1991,0.7007655941251241,3624.29263348752,
50,Turkey,1991,24.2528253262632,6708.88126741793,148599.0
51,Spain,1991,9.921294033409259,22978.125019001698,225837.3333
52,Thailand,1991,33.0156284636685,2684.8452313223997,116138.0
53,Taiwan,1991,,,137067.3333
54,Kazakhstan,1991,1.28737679192998,5209.68159952491,
55,Egypt,1991,,,78708.66667
56,Malaysia,1991,11.153435711173902,4835.99192069421,68585.0
57,Venezuela,1991,,,115430.3333
58,Argentina,1991,8.74818149257955,6598.722634827429,117010.6667
59,Netherlands,1991,1.25938210826611,36063.4708505602,172689.0
60,China,1992,32.9312702325973,888.911004119008,2695737.0
61,United States,1992,4.7630835765853,36566.1737698527,4875563.0
62,India,1992,57.2305722200711,548.895783827753,783563.0
63,Russia,1992,,,2133871.667
64,Japan,1992,4.19771462494075,39267.1202427963,1123459.333
65,Germany,1992,2.06262156738652,34130.852397553,893060.6667
66,Iran,1992,,,229053.0
67,South Korea,1992,,,284254.6667
68,Canada,1992,21.929985169331303,35108.5190377961,467606.3333
69,South Africa,1992,18.363216905572603,5485.4411271779,324822.6667
70,Indonesia,1992,56.82078306576899,1878.7098602479998,202557.6667
71,Saudi Arabia,1992,0.0221795946906567,20226.8542212626,285508.6667
72,Mexico,1992,13.427090797008901,7532.607785608509,328441.6667
73,United Kingdom,1992,0.840737841247166,28321.034526205898,587400.0
74,Brazil,1992,48.701189093997,7796.841830898659,220685.6667
75,Italy,1992,4.839464264067651,31531.6900203869,428065.0
76,Australia,1992,7.51646995330493,34967.517724019905,294429.6667
77,France,1992,11.2582015787162,33269.1469119185,397001.0
78,Poland,1992,2.3027488067324,5631.17683882957,357250.6667
79,Ukraine,1992,0.6005920147963211,3263.3718571305103,641622.6667
80,Turkey,1992,24.2856427600951,6931.900406057261,153090.6667
81,Spain,1992,8.220908250372661,23078.3360923639,234036.0
82,Thailand,1992,31.823777112288397,2872.79787185008,126819.0
83,Taiwan,1992,,,147667.6667
84,Kazakhstan,1992,1.17451761660667,4936.9912513304,261283.0
85,Egypt,1992,,,81257.0
86,Malaysia,1992,10.266216615353699,5131.83120313103,75291.33333
87,Venezuela,1992,,,105864.0
88,Argentina,1992,9.4716474340405,7285.42942771472,121436.3333
89,Netherlands,1992,1.3224557703276298,36402.4728942336,168098.3333
90,China,1993,31.6777903632893,1000.61180975351,2878432.333
91,United States,1993,4.28152881498259,37078.04968394,5167015.333
92,India,1993,56.9833628814589,563.74968766069,814223.6667
93,Russia,1993,,,1963756.667
94,Japan,1993,4.4356066816968704,39237.3266924184,1108462.667
95,Germany,1993,2.1109305232159903,33583.0060357251,878980.6667
96,Iran,1993,,,237746.6667
97,South Korea,1993,,,321922.3333
98,Canada,1993,21.803053057096896,35648.4779876294,477876.6667
99,South Africa,1993,18.5859499728328,5423.5879502245,342518.0
100,Indonesia,1993,55.4330147051756,1968.1241364128198,218581.0
101,Saudi Arabia,1993,0.015516265026982001,19413.782932758502,313789.6667
102,Mexico,1993,13.303968540916,7685.21740256496,330304.3333
103,United Kingdom,1993,0.775204996185432,28967.1550453556,567471.6667
104,Brazil,1993,48.199092179224,8027.189384307149,230717.6667
105,Italy,1993,4.771496293963151,31243.6790226551,423192.0
106,Australia,1993,8.616992277754541,36033.635884343195,302089.3333
107,France,1993,10.860132417758601,32922.3630027908,389070.0
108,Poland,1993,6.13110123924332,5826.84237041249,352487.6667
109,Ukraine,1993,0.8937229666468349,2797.5684059844702,546062.0
110,Turkey,1993,23.884320699741203,7343.09352768899,159118.6667
111,Spain,1993,9.079810265577551,22722.1546792394,219387.6667
112,Thailand,1993,26.4259071339326,3081.75303549132,142541.6667
113,Taiwan,1993,,,160094.0
114,Kazakhstan,1993,1.3434635918658702,4512.62020400203,221085.3333
115,Egypt,1993,,,93148.0
116,Malaysia,1993,10.025851978198801,5500.1169703286405,91714.33333
117,Venezuela,1993,,,124344.0
118,Argentina,1993,10.1283411192449,7612.68115329614,118598.3333
119,Netherlands,1993,1.32088270142249,36604.233481752,172135.3333
120,China,1994,31.249482543731197,1118.49957748173,3057963.333
121,United States,1994,4.08864089262597,38104.9724675631,5226701.333
122,India,1994,55.5571865296363,589.70878759027,864853.0
123,Russia,1994,,,1722398.333
124,Japan,1994,3.56764564292144,39441.5707298458,1173920.0
125,Germany,1994,2.26620149102362,34289.1247492873,867089.6667
126,Iran,1994,,,265800.3333
127,South Korea,1994,,,344006.6667
128,Canada,1994,21.692691340693997,36893.981885530804,454450.3333
129,South Africa,1994,18.5628791651255,5474.19692985421,358897.0
130,Indonesia,1994,52.8137811957867,2083.06368170835,221393.3333
131,Saudi Arabia,1994,0.0307253645796098,19041.0583983076,308990.0
132,Mexico,1994,11.863103352403801,7896.1205975456905,347952.0
133,United Kingdom,1994,1.0214284388655999,30014.581398898197,563724.3333
134,Brazil,1994,48.35001791117371,8319.20902382918,242132.0
135,Italy,1994,5.24802319187672,31909.236710549103,412566.0
136,Australia,1994,8.25994716233665,37098.7987775714,303930.0
137,France,1994,10.934488917943598,33569.3308859262,369424.0
138,Poland,1994,6.1951407688222595,6122.31312820176,336130.6667
139,Ukraine,1994,1.10501957800674,2166.6930208063395,446970.3333
140,Turkey,1994,24.306627580775498,6889.594051419399,156830.6667
141,Spain,1994,9.24137471056476,23153.1727955438,233537.3333
142,Thailand,1994,23.867819923037402,3297.86779352882,158264.3333
143,Taiwan,1994,,,167548.3333
144,Kazakhstan,1994,1.8344124401387802,4001.66928058981,199470.3333
145,Egypt,1994,,,85305.0
146,Malaysia,1994,9.925926540031641,5858.94810639242,94002.33333
147,Venezuela,1994,,,129935.6667
148,Argentina,1994,10.734911942429001,7952.71155173317,123339.3333
149,Netherlands,1994,1.35594134128887,37461.5661613717,172729.3333
150,China,1995,29.472091570381103,1227.55640691521,3319983.333
151,United States,1995,4.72655345012613,38677.7150883663,5237492.333
152,India,1995,54.4841152663366,622.303683083803,919963.0
153,Russia,1995,,,1662375.0
154,Japan,1995,3.9171886498751802,40368.7051086109,1183838.333
155,Germany,1995,2.3197486949717203,34782.5686253047,865674.3333
156,Iran,1995,,,273504.0
157,South Korea,1995,,,374737.0
158,Canada,1995,21.923576811624397,37569.4682404423,459748.6667
159,South Africa,1995,18.113079980859002,5528.169471476279,353426.3333
160,Indonesia,1995,50.0981506659256,2219.8110581361398,224920.6667
161,Saudi Arabia,1995,0.0258904028650327,18648.856867078102,236232.3333
162,Mexico,1995,13.261833861280902,7307.17697825048,328009.0
163,United Kingdom,1995,1.06022908426424,30674.6055465252,564472.3333
164,Brazil,1995,46.134346959374,8547.941159706941,258324.0
165,Italy,1995,4.46227906581165,32829.8827518868,438654.3333
166,Australia,1995,8.21780573230701,38078.903947084706,307406.0
167,France,1995,10.701409417889698,34145.7054163291,393253.6667
168,Poland,1995,6.332528356466921,6539.04667176875,346782.3333
169,Ukraine,1995,0.9769396754942021,1917.4513715329501,445903.3333
170,Turkey,1995,22.1495340286131,7315.1764315255205,171955.6667
171,Spain,1995,8.26456579292529,23686.843485455,241710.3333
172,Thailand,1995,22.699411979264802,3530.29398493076,181445.0
173,Taiwan,1995,,,178288.0
174,Kazakhstan,1995,1.57574582281912,3738.4694732997204,166716.0
175,Egypt,1995,,,95714.66667
176,Malaysia,1995,9.029613475686011,6275.11575654621,121121.0
177,Venezuela,1995,,,133224.6667
178,Argentina,1995,11.205186220553301,7630.02227409899,122536.3333
179,Netherlands,1995,1.2774365467675701,38438.5538435132,176293.3333
180,China,1996,30.537261452027803,1335.36268011202,3462774.333
181,United States,1996,4.76393042697246,39681.5198579033,5343026.333
182,India,1996,53.76740766044029,656.697143961351,1002133.0
183,Russia,1996,,,1631758.333
184,Japan,1996,3.83935815044586,41514.8624950739,1205501.0
185,Germany,1996,2.2521736026240498,34965.6908864708,891220.0
186,Iran,1996,,,276701.3333
187,South Korea,1996,,,403681.6667
188,Canada,1996,21.5792363751229,37765.7324508268,467841.0
189,South Africa,1996,17.437768566002,5657.32791037655,358607.3333
190,Indonesia,1996,48.750379430048895,2357.9593514244298,253267.6667
191,Saudi Arabia,1996,0.00965379976475783,18744.7805145329,258727.3333
192,Mexico,1996,13.064724898568,7603.70898136384,340783.6667
193,United Kingdom,1996,0.9435868480935821,31373.3411897037,580554.3333
194,Brazil,1996,44.532877574938404,8598.01495879817,284757.0
195,Italy,1996,4.748914392476951,33242.8522991256,429388.6667
196,Australia,1996,8.86597109711756,39065.9243827866,329230.0
197,France,1996,10.4949528475372,34497.283907824196,408089.0
198,Poland,1996,5.86500016203843,6929.815426937421,358790.6667
199,Ukraine,1996,0.897910982918882,1741.08871439694,412298.3333
200,Turkey,1996,21.2891437992441,7731.174984716421,188180.6667
201,Spain,1996,10.0619905235448,24219.3275848937,233401.6667
202,Thailand,1996,21.1634726417769,3688.93420348057,202693.3333
203,Taiwan,1996,,,186868.0
204,Kazakhstan,1996,1.63377857913578,3814.4993269540705,140679.0
205,Egypt,1996,,,102021.3333
206,Malaysia,1996,7.473082964098821,6729.523940406159,125363.3333
207,Venezuela,1996,,,122741.6667
208,Argentina,1996,10.193855948136699,7955.127651762779,129206.0
209,Netherlands,1996,1.2878879569768897,39626.2926643833,186340.0
210,China,1997,30.1153801109838,1443.77474185404,3469194.667
211,United States,1997,4.51425989144391,40965.8466450522,5500865.333
212,India,1997,52.488072143077,670.610121594673,1043845.0
213,Russia,1997,,,1559096.0
214,Japan,1997,4.07212760168525,41861.9110380264,1201522.667
215,Germany,1997,2.82442229569464,35560.2092859448,863896.0
216,Iran,1997,,,269954.6667
217,South Korea,1997,,,429968.0
218,Canada,1997,21.3111443393126,38967.9531013894,483189.6667
219,South Africa,1997,17.107192711976598,5706.17480392172,371294.0
220,Indonesia,1997,47.087376033844606,2433.3405076085396,278633.6667
221,Saudi Arabia,1997,0.00903233189619883,18588.3043453831,216219.6667
222,Mexico,1997,12.699778574804402,7999.85794210516,358350.6667
223,United Kingdom,1997,1.02847962228074,32556.3166954329,553622.6667
224,Brazil,1997,43.7251080397834,8750.27405767678,300520.0
225,Italy,1997,4.831418996334611,33835.0731328908,433561.3333
226,Australia,1997,9.08024376658822,40156.3352495743,333593.3333
227,France,1997,9.985452621802802,35178.9345385494,379452.3333
228,Poland,1997,5.9823678442252195,7372.622950933421,351017.3333
229,Ukraine,1997,1.02503941586778,1704.3140236586999,341165.0
230,Turkey,1997,20.8875019504683,8186.24148944732,198509.6667
231,Spain,1997,9.15429409441324,25007.8943666805,252145.6667
232,Thailand,1997,21.2488412029515,3545.38806104305,210045.0
233,Taiwan,1997,,,200911.3333
234,Kazakhstan,1997,1.67101539692939,3941.1248478657794,129569.0
235,Egypt,1997,,,108192.3333
236,Malaysia,1997,6.705587248297019,7040.79047145522,124809.6667
237,Venezuela,1997,,,133950.6667
238,Argentina,1997,10.9990713085174,8500.94036184635,134665.6667
239,Netherlands,1997,1.50814419325943,41117.9632906548,178262.3333
240,China,1998,29.864660765556003,1542.06412996664,3324042.333
241,United States,1998,4.53429644029916,42292.8912011426,5448582.333
242,India,1998,52.712257695707294,699.0688547177431,1071814.333
243,Russia,1998,,,1526605.667
244,Japan,1998,4.04535604086069,41277.0774763816,1158960.0
245,Germany,1998,3.04511875141867,36258.6744317081,857101.6667
246,Iran,1998,,,309202.6667
247,South Korea,1998,,,364789.3333
248,Canada,1998,21.524032861064402,40131.7018339628,517172.3333
249,South Africa,1998,17.272489499476197,5643.2614851174,372185.0
250,Indonesia,1998,48.299626709570205,2084.23454844949,210191.6667
251,Saudi Arabia,1998,0.009723801129668991,18763.5859281919,207661.6667
252,Mexico,1998,12.238454142669001,8245.49392514536,373376.6667
253,United Kingdom,1998,1.02799364353118,33480.1660134045,554088.3333
254,Brazil,1998,43.8615750782815,8644.4208430246,312260.6667
255,Italy,1998,4.75762637391278,34371.9820181408,442504.3333
256,Australia,1998,8.59507281065251,41504.4958976453,346881.3333
257,France,1998,9.709285766334132,36295.9353465198,409057.0
258,Poland,1998,6.53402112201813,7710.0864099906,326905.3333
259,Ukraine,1998,1.57750717217344,1686.94178709922,328606.6667
260,Turkey,1998,21.6801870484908,8244.49662659088,200588.6667
261,Spain,1998,8.94141386440509,25977.0009830159,261539.6667
262,Thailand,1998,21.6509753779243,3235.7322429727,186486.6667
263,Taiwan,1998,,,211951.6667
264,Kazakhstan,1998,1.53673139688302,3933.5577676300604,125051.6667
265,Egypt,1998,,,122232.0
266,Malaysia,1998,7.1678398434725,6360.94933120729,114176.3333
267,Venezuela,1998,,,167306.3333
268,Argentina,1998,11.343011760171402,8728.94765116614,137661.3333
269,Netherlands,1998,1.5712722268820198,42714.5130141436,175343.6667
270,China,1999,30.699694674317602,1645.98799567879,3317754.0
271,United States,1999,5.709727348905231,43768.884992832594,5527646.667
272,India,1999,51.717292851989,747.25203565058,1144286.0
273,Russia,1999,,,1538694.667
274,Japan,1999,3.8287866071935,41097.9611955571,1197933.0
275,Germany,1999,3.26371214955181,36955.2896071002,824398.6667
276,Iran,1999,,,382679.0
277,South Korea,1999,,,399809.6667
278,Canada,1999,21.705083175090603,41856.045592390095,515368.3333
279,South Africa,1999,18.2213194597587,5688.3085121265,371000.6667
280,Indonesia,1999,45.0786667874833,2071.5506297140696,241967.0
281,Saudi Arabia,1999,0.00941578259373578,17690.917568778998,226438.6667
282,Mexico,1999,12.7484622373033,8340.56385750001,381813.6667
283,United Kingdom,1999,0.9474950902514709,34442.1070945849,535502.0
284,Brazil,1999,44.0972827710182,8554.83443909603,320144.0
285,Italy,1999,5.022460330875,34902.262126968504,436978.6667
286,Australia,1999,8.50727337152295,43087.4467189905,325493.6667
287,France,1999,9.77901427358449,37339.9809749041,371275.6667
288,Poland,1999,6.40661347963493,8068.674760884741,317104.3333
289,Ukraine,1999,1.45112151476779,1699.51747282766,332519.0
290,Turkey,1999,20.5889662633313,7842.59386247354,196749.6667
291,Spain,1999,7.68165655936928,27032.220713911698,282359.0
292,Thailand,1999,21.3124416356754,3345.15601545615,196929.3333
293,Taiwan,1999,,,205619.3333
294,Kazakhstan,1999,1.78863464233435,4078.42679261378,116482.6667
295,Egypt,1999,,,125381.6667
296,Malaysia,1999,7.34271497875009,6589.6037488628,107924.6667
297,Venezuela,1999,,,172601.0
298,Argentina,1999,10.306172699109,8339.89438868086,145475.0
299,Netherlands,1999,1.65502713362762,44574.6884624324,163012.6667
300,China,2000,30.251003477115603,1771.7415057953897,3404870.333
301,United States,2000,5.4296233817267,45055.817918284,5712930.667
302,India,2000,51.5793450777988,762.3133408050661,1186555.333
303,Russia,2000,,,1557970.333
304,Japan,2000,3.9161079895540296,42169.6978757344,1219482.0
305,Germany,2000,3.70043728164096,37998.425311999104,832025.3333
306,Iran,2000,,,372669.0
307,South Korea,2000,,,447520.3333
308,Canada,2000,21.5104023472301,43638.283154814504,534435.0
309,South Africa,2000,18.5080794339529,5837.88517841162,368577.0
310,Indonesia,2000,45.5815041441236,2143.38989039205,263395.0
311,Saudi Arabia,2000,0.0091177796194455,18263.2300818186,296908.3333
312,Mexico,2000,12.167361241993001,8659.79725352063,381483.6667
313,United Kingdom,2000,0.9604351212609151,35576.7668473642,543612.6667
314,Brazil,2000,42.798768200031,8778.18814081675,327954.0
315,Italy,2000,5.1195152068422,36180.778333289905,448099.6667
316,Australia,2000,8.4233424471751,44223.5912367361,329574.6667
317,France,2000,9.25599938877348,38522.2102787019,365526.3333
318,Poland,2000,6.92176997171984,8525.13950212083,301664.0
319,Ukraine,2000,1.2545802237153603,1817.9971010935699,320745.3333
320,Turkey,2000,17.2864945462463,8237.34215790948,216128.0
321,Spain,2000,7.884333409984679,28335.001833327,294407.6667
322,Thailand,2000,21.9881375183338,3458.05393141622,201531.0
323,Taiwan,2000,,,217686.3333
324,Kazakhstan,2000,2.50503703464085,4491.591823330639,127757.6667
325,Egypt,2000,,,141313.3333
326,Malaysia,2000,6.74350337089375,7009.60173993548,126591.6667
327,Venezuela,2000,,,152401.3333
328,Argentina,2000,11.077953141940801,8182.686502308679,141064.0
329,Netherlands,2000,1.75315183801911,46133.176346003,165348.3333
330,China,2001,29.6982600995338,1905.61078010947,3487249.333
331,United States,2001,4.67857102299732,45047.48719768441,5600859.0
332,India,2001,51.78722228494221,785.3446280611611,1203733.667
333,Russia,2001,,,1557871.333
334,Japan,2001,3.73677743682949,42239.1130886031,1202157.0
335,Germany,2001,3.8996724765930497,38577.7256293297,855679.0
336,Iran,2001,,,398790.3333
337,South Korea,2001,,,450153.0
338,Canada,2001,21.0086795068676,43964.9545940366,525642.3333
339,South Africa,2001,19.121440300119698,5912.67012073949,362710.3333
340,Indonesia,2001,44.3715959517692,2190.7661797947103,294880.6667
341,Saudi Arabia,2001,0.0104607692407391,17585.390454968,297187.0
342,Mexico,2001,11.3438856242747,8494.83885088078,394764.3333
343,United Kingdom,2001,0.8720827320068091,36341.7097504855,550502.3333
344,Brazil,2001,41.4778838371849,8776.86371936394,337403.0
345,Italy,2001,5.38256642921618,36801.2938105496,447014.3333
346,Australia,2001,8.37028223004478,44473.4086078834,324830.0
347,France,2001,9.3952215937127,38990.3061332386,385792.0
348,Poland,2001,7.286876337150941,8633.915227188101,302778.6667
349,Ukraine,2001,1.2280653348647,2005.3151415287698,321621.6667
350,Turkey,2001,18.1313410300647,7631.4031830935,194520.3333
351,Spain,2001,8.93344992713185,29264.8814529131,297803.0
352,Thailand,2001,20.0356051897672,3544.20834359561,217066.6667
353,Taiwan,2001,,,226919.0
354,Kazakhstan,2001,2.4099999771135296,5106.634167010349,147895.0
355,Egypt,2001,,,125440.3333
356,Malaysia,2001,6.478489081382969,6893.2805132720805,136704.3333
357,Venezuela,2001,,,172509.3333
358,Argentina,2001,13.040374582484699,7735.4933643901095,132619.6667
359,Netherlands,2001,1.78386100131382,46758.876750027404,167258.6667
360,China,2002,28.5084072214603,2065.71857925612,3693906.333
361,United States,2002,4.84077881183353,45428.6456781274,5650443.333
362,India,2002,50.569438880197204,801.5079326855321,1226679.667
363,Russia,2002,,,1557523.0
364,Japan,2002,3.6953741898925903,42190.7786326809,1216640.333
365,Germany,2002,4.4126364207928095,38512.9200411024,830833.6667
366,Iran,2002,,,402141.6667
367,South Korea,2002,,,465589.6667
368,Canada,2002,21.7698418356752,44883.828395515,519115.6667
369,South Africa,2002,18.3553621180349,6045.96318799062,347655.0
370,Indonesia,2002,44.7644465624792,2257.74685507094,306709.3333
371,Saudi Arabia,2002,0.00955045171515103,16619.4346590337,326377.3333
372,Mexico,2002,10.6827814649643,8401.01586690823,391215.0
373,United Kingdom,2002,0.9946624182481779,37077.6483548939,531890.3333
374,Brazil,2002,43.0245617196216,8924.33352798132,332236.6667
375,Italy,2002,5.59667083363431,36837.863985999196,449243.6667
376,Australia,2002,8.73872132518713,45626.622031273204,341366.6667
377,France,2002,8.66875583933041,39140.714763659504,380413.0
378,Poland,2002,7.484914000082919,8814.267306253141,296904.6667
379,Ukraine,2002,1.03493284821068,2130.65855856673,318655.3333
380,Turkey,2002,17.483605214318303,8003.479393602231,205659.6667
381,Spain,2002,7.41510543770013,29685.3639494669,314490.0
382,Thailand,2002,20.0669293523165,3731.02710706035,230615.0
383,Taiwan,2002,,,237820.0
384,Kazakhstan,2002,2.7736582127900498,5606.85299741729,151932.0
385,Egypt,2002,,,127182.0
386,Malaysia,2002,5.716591121068691,7114.816741041279,135116.6667
387,Venezuela,2002,,,193244.3333
388,Argentina,2002,13.2879805729717,6816.734855377779,123255.0
389,Netherlands,2002,1.9348580032308302,46509.5171375534,172348.0
390,China,2003,25.8146180127803,2258.91210541049,4524765.667
391,United States,2003,5.32628287167728,46304.0360895612,5681148.0
392,India,2003,50.842801654898395,850.293264901655,1281797.0
393,Russia,2003,,,1604826.667
394,Japan,2003,4.07902460711328,42743.9939102079,1237280.0
395,Germany,2003,5.05846722963949,38218.3496455934,835582.0
396,Iran,2003,,,418821.3333
397,South Korea,2003,,,466172.6667
398,Canada,2003,21.1830760735128,45239.811390679504,553135.0
399,South Africa,2003,17.5352585876897,6142.94031187194,380776.0
400,Indonesia,2003,43.1713910012446,2333.09748333113,316763.3333
401,Saudi Arabia,2003,0.00914147717343215,17954.9497936841,327242.6667
402,Mexico,2003,10.1690392829794,8416.9042657497,405595.6667
403,United Kingdom,2003,0.9675895968692679,38132.8410859077,540591.3333
404,Brazil,2003,45.308668686131,8910.85562414267,321592.3333
405,Italy,2003,6.24058744703588,36729.9755411316,468306.6667
406,Australia,2003,7.13900317672162,46449.8451866154,346445.0
407,France,2003,8.84755476289167,39182.7793888923,387112.0
408,Poland,2003,7.2885476381159995,9134.43606899495,304828.3333
409,Ukraine,2003,0.972022337132698,2349.93150771578,352227.3333
410,Turkey,2003,16.3054962332841,8331.75789188593,218489.3333
411,Spain,2003,8.899924155623669,30082.6264787606,321068.0
412,Thailand,2003,20.3443970832372,3969.4155657393394,245652.0
413,Taiwan,2003,,,246543.0
414,Kazakhstan,2003,2.28479715209908,6107.709259303039,153802.0
415,Egypt,2003,,,158865.6667
416,Malaysia,2003,5.41355708719941,7377.3081937676,160251.6667
417,Venezuela,2003,,,192085.6667
418,Argentina,2003,12.5181290548164,7337.79203783303,133114.6667
419,Netherlands,2003,1.92537533978752,46422.024850388,175024.6667
420,China,2004,22.511703536979603,2472.58655569402,5287685.333
421,United States,2004,5.47765611374877,47614.2798621765,5790235.0
422,India,2004,49.7240254154299,902.9057943507561,1348402.0
423,Russia,2004,,,1602817.333
424,Japan,2004,4.01375731559908,43671.6803574739,1259544.0
425,Germany,2004,5.82524449090346,38673.8881132052,828446.6667
426,Iran,2004,,,447439.6667
427,South Korea,2004,,,482540.6667
428,Canada,2004,21.5814031680858,46170.9201965306,552299.0
429,South Africa,2004,16.786535538700498,6343.0297472784305,427093.3333
430,Indonesia,2004,41.683345360736496,2416.83638933237,337604.6667
431,Saudi Arabia,2004,0.0087210600367016,18822.7300411973,395798.3333
432,Mexico,2004,10.2132921666515,8667.28855532868,410707.0
433,United Kingdom,2004,1.16964616411691,38813.0216936727,540360.3333
434,Brazil,2004,45.3899676951203,9309.008195139879,337795.3333
435,Italy,2004,5.93594921139017,37070.3305155452,472725.0
436,Australia,2004,6.66882802564038,47817.8992322005,349191.3333
437,France,2004,8.887712249935,39979.1197150554,389671.3333
438,Poland,2004,7.30648001368791,9609.16963452197,304960.3333
439,Ukraine,2004,1.18975037441993,2654.33354768562,343090.0
440,Turkey,2004,16.8023172108864,9009.594524906708,225386.3333
441,Spain,2004,8.03208843950808,30504.357430610296,339397.6667
442,Thailand,2004,20.0246679216929,4190.032275697879,267736.3333
443,Taiwan,2004,,,260593.6667
444,Kazakhstan,2004,1.8884904828854099,6647.69212950055,172142.6667
445,Egypt,2004,,,160567.0
446,Malaysia,2004,5.1690398446463,7725.84502041922,167317.3333
447,Venezuela,2004,,,168252.3333
448,Argentina,2004,8.34804550106846,7913.74312362482,156156.0
449,Netherlands,2004,2.24075671287048,47200.424693034,176887.3333
450,China,2005,20.7803965714198,2738.2054599526,5789490.667
451,United States,2005,5.841091380301029,48755.6160606735,5825864.0
452,India,2005,48.575308464797004,971.229760739138,1410999.333
453,Russia,2005,,,1615537.0
454,Japan,2005,3.65447331959081,44393.662740098895,1238068.333
455,Germany,2005,6.76455102262891,38969.3216980632,809523.0
456,Iran,2005,,,486669.3333
457,South Korea,2005,,,462876.3333
458,Canada,2005,22.046442703165898,47181.5623940446,563020.3333
459,South Africa,2005,16.2682866451579,6599.35652472708,396080.6667
460,Indonesia,2005,41.7755480621856,2519.5098415279,341960.6667
461,Saudi Arabia,2005,0.00830727491944548,19309.3120670672,397606.0
462,Mexico,2005,10.3029990757,8808.56356491149,435006.0
463,United Kingdom,2005,1.39979338987405,39740.9029213191,541940.6667
464,Brazil,2005,46.347938976295204,9495.104939130071,347277.3333
465,Italy,2005,6.70263931122311,37238.9365291342,473337.3333
466,Australia,2005,6.71197573579166,48702.734693348,367099.3333
467,France,2005,8.629754042616879,40316.8127598175,391790.6667
468,Poland,2005,7.21197726845305,9949.252839455909,303493.6667
469,Ukraine,2005,1.2512306171645702,2746.0498020290397,338998.0
470,Turkey,2005,15.324173099173,9691.8159457902,237347.0
471,Spain,2005,7.28981662514457,31110.0141282392,353430.0
472,Thailand,2005,20.2523974991444,4337.26335679049,275139.3333
473,Taiwan,2005,,,262434.3333
474,Kazakhstan,2005,2.09440170379295,7227.982948989191,176931.3333
475,Egypt,2005,,,174625.0
476,Malaysia,2005,4.9245250381742105,7983.891493694699,182526.6667
477,Venezuela,2005,,,181617.3333
478,Argentina,2005,8.95760224898816,8522.52273238782,155635.3333
479,Netherlands,2005,2.77375816866759,48107.5854897237,172212.3333
480,China,2006,19.6648657439337,3069.3047809513696,6413880.0
481,United States,2006,6.39651423227052,49575.401013591,5737094.0
482,India,2006,47.4436325878207,1044.8939404376,1504228.0
483,Russia,2006,,,1669451.667
484,Japan,2006,4.02936416811571,44995.5215075646,1231186.0
485,Germany,2006,7.753224491222269,40456.8573802769,811807.3333
486,Iran,2006,,,505219.0
487,South Korea,2006,,,470763.3333
488,Canada,2006,21.920885062397197,48035.035791904906,550183.3333
489,South Africa,2006,16.3906217212549,6892.36241269015,424805.3333
490,Indonesia,2006,40.326423036498106,2621.96039791854,345088.3333
491,Saudi Arabia,2006,0.00875745864670483,19304.5502317946,432699.6667
492,Mexico,2006,9.821398338349132,9108.06544957465,441756.3333
493,United Kingdom,2006,1.59499082218923,40418.747304742996,541995.6667
494,Brazil,2006,46.9050630586331,9761.87640157734,347636.6667
495,Italy,2006,7.51256452636471,37872.1683558927,470132.6667
496,Australia,2006,6.857191372040019,49418.686319594104,377347.6667
497,France,2006,8.497879185913401,40987.5490759697,382246.3333
498,Poland,2006,7.18125368096051,10570.7739026765,319381.3333
499,Ukraine,2006,1.73451696577729,2966.50006223766,327767.0
500,Turkey,2006,14.2706391918736,10251.0454642528,261547.0
501,Spain,2006,8.47220766343187,31865.369166663197,350005.3333
502,Thailand,2006,20.686937556141398,4525.15928176155,283961.3333
503,Taiwan,2006,,,268862.0
504,Kazakhstan,2006,2.12706140987439,7917.195342356891,192096.6667
505,Egypt,2006,,,187487.6667
506,Malaysia,2006,4.99439959587796,8273.66198942654,170632.0
507,Venezuela,2006,,,169891.3333
508,Argentina,2006,10.187843320320901,9112.11316338653,171163.6667
509,Netherlands,2006,3.15363847123543,49720.394858048,167185.3333
510,China,2007,18.623741612767898,3487.84576561013,6791187.333
511,United States,2007,6.3041273711241,49979.5338429195,5828166.667
512,India,2007,45.867858546408605,1130.09007066353,1611258.0
513,Russia,2007,,,1667424.0
514,Japan,2007,3.7527320900979304,45687.345750770095,1251055.667
515,Germany,2007,9.40658814590348,41831.8670883098,787163.6667
516,Iran,2007,,,539315.3333
517,South Korea,2007,,,495792.0
518,Canada,2007,21.9104051856304,48552.6964313308,560750.6667
519,South Africa,2007,15.827872618032698,7185.7529988788,443608.0
520,Indonesia,2007,40.4301073383041,2750.61514270465,375510.6667
521,Saudi Arabia,2007,0.00798537185617706,19136.1592335417,393499.3333
522,Mexico,2007,9.453193528882741,9253.31771559193,456756.6667
523,United Kingdom,2007,1.8926747792136398,41050.4059264847,528583.0
524,Brazil,2007,47.4176224936446,10245.23081298,363179.6667
525,Italy,2007,8.731729444831519,38236.7956108395,461087.0
526,Australia,2007,6.95158584155545,50952.467037889,381322.3333
527,France,2007,9.36416463021492,41696.692239255,375650.0
528,Poland,2007,7.273469386256269,11320.552874904599,315172.0
529,Ukraine,2007,2.35998470031775,3220.01355748416,328826.6667
530,Turkey,2007,12.5041065718007,10637.7191138148,284632.3333
531,Spain,2007,9.00538701039059,32459.9173758671,358204.0
532,Thailand,2007,21.611243596846,4744.33322739726,275608.6667
533,Taiwan,2007,,,274527.0
534,Kazakhstan,2007,1.8332459043078997,8523.76620458622,220022.0
535,Egypt,2007,,,199202.6667
536,Malaysia,2007,4.55770726474789,8889.684191754059,195462.6667
537,Venezuela,2007,,,174533.3333
538,Argentina,2007,8.887650446924232,9830.680919822042,173572.6667
539,Netherlands,2007,3.7232109316002,51447.2595860077,171750.3333
540,China,2008,18.4713924968032,3805.02599866378,7037070.333
541,United States,2008,6.8455416282143196,49364.644550033605,5656324.667
542,India,2008,43.632883329913994,1156.93252713628,1801994.333
543,Russia,2008,,,1715508.667
544,Japan,2008,3.98386688405393,45165.887161943094,1207576.333
545,Germany,2008,8.59224835679531,42365.0974955812,786580.6667
546,Iran,2008,,,580121.6667
547,South Korea,2008,,,508005.6667
548,Canada,2008,22.657055899890103,48510.5677732731,544925.3333
549,South Africa,2008,15.999681358517499,7337.84017375611,464915.0
550,Indonesia,2008,40.688264522105605,2876.88504026904,412459.6667
551,Saudi Arabia,2008,0.00725628453263807,19792.7203836535,418201.6667
552,Mexico,2008,9.76961813387421,9232.19731607389,476597.0
553,United Kingdom,2008,2.4911156531595497,40536.1348574428,522199.3333
554,Brazil,2008,47.26330353415171,10658.2253077189,387640.0
555,Italy,2008,10.823349004606,37585.3373525671,447326.0
556,Australia,2008,6.79705889520393,51788.440148049005,392964.0
557,France,2008,10.5030367595406,41545.2940923558,376959.0
558,Poland,2008,8.008337922736219,11800.0343836346,316030.0
559,Ukraine,2008,2.72483355467293,3311.9584095409496,323627.3333
560,Turkey,2008,12.4381662853843,10599.2881843679,285248.3333
561,Spain,2008,9.73720273641559,32303.2414806061,329255.6667
562,Thailand,2008,22.491087122873804,4800.81053710194,283697.3333
563,Taiwan,2008,,,258599.0
564,Kazakhstan,2008,1.15380283199588,8698.42365362226,229419.6667
565,Egypt,2008,,,210301.6667
566,Malaysia,2008,4.729134713440581,9020.39970254535,209355.6667
567,Venezuela,2008,,,182281.0
568,Argentina,2008,7.60968721787448,10125.1262721185,182112.3333
569,Netherlands,2008,3.97578941986263,52118.0925554466,173829.3333
570,China,2009,18.160408288868503,4142.03828597868,7686415.0
571,United States,2009,7.35440751371892,47575.608562749,5299081.333
572,India,2009,40.7708286669786,1237.33978594471,1979244.667
573,Russia,2009,,,1574243.0
574,Japan,2009,4.03561352248426,42724.534911262796,1101034.0
575,Germany,2009,9.630061034352641,40086.104759441696,734532.3333
576,Iran,2009,,,602000.6667
577,South Korea,2009,,,509329.3333
578,Canada,2009,22.584613369741398,46543.7921999113,513890.6667
579,South Africa,2009,15.5799269281091,7145.78412283471,498971.0
580,Indonesia,2009,39.5649032241454,2970.0441310657898,451740.6667
581,Saudi Arabia,2009,0.007049214822246459,18861.1099983952,432732.6667
582,Mexico,2009,9.16840588924082,8657.836028711941,446196.6667
583,United Kingdom,2009,3.0266161554103,38545.9158164225,474536.3333
584,Brazil,2009,49.113724324435,10540.1087666864,367114.0
585,Italy,2009,12.5397535851871,35363.4004619474,400799.6667
586,Australia,2009,6.7654411459105095,51651.22325755769,400158.0
587,France,2009,11.2292686222012,40116.3795272806,363322.6667
588,Poland,2009,8.878320296451449,12124.6071954569,298877.3333
589,Ukraine,2009,2.96305143071065,2834.34324513462,272151.0
590,Turkey,2009,13.352370060482901,9973.34056855175,277819.6667
591,Spain,2009,12.2179459918185,30874.126012677003,288203.6667
592,Thailand,2009,22.657366521342897,4743.690471710321,271696.3333
593,Taiwan,2009,,,239092.3333
594,Kazakhstan,2009,1.30558986889476,8573.772759107309,225782.3333
595,Egypt,2009,,,216117.0
596,Malaysia,2009,4.2301240809731695,8635.11672182396,198330.0
597,Venezuela,2009,,,184778.0
598,Argentina,2009,8.574059518608019,9428.50254117176,174702.0
599,Netherlands,2009,4.41245062992487,49897.225168325705,169634.6667
600,China,2010,17.4138287737134,4560.512586009289,8287717.256
601,United States,2010,7.50517123554127,48373.878815577904,5503170.257
602,India,2010,39.4842517068278,1345.77015320886,2099870.28
603,Russia,2010,,,1632861.135
604,Japan,2010,4.58744548538733,44507.6763859172,1172280.544
605,Germany,2010,10.2935195013731,41785.556912554,768592.0104
606,Iran,2010,,,623904.0819
607,South Korea,2010,,,557256.6444
608,Canada,2010,22.1422798062081,47447.4760241936,523837.1263
609,South Africa,2010,17.0915535321422,7275.382111936421,511410.1055
610,Indonesia,2010,38.37834077463771,3113.4806345143297,509036.4132
611,Saudi Arabia,2010,0.00625490792223358,19259.5872568465,470755.6513
612,Mexico,2010,9.35997731586583,8959.5814158753,452355.2236
613,United Kingdom,2010,3.6908649703867997,38893.0184937365,491546.5779
614,Brazil,2010,47.0066588762329,11224.1540829355,418583.93
615,Italy,2010,12.794093673640099,35849.3731979401,410032.2935
616,Australia,2010,8.55276141520674,51874.080481995705,361902.0611
617,France,2010,11.8721272107201,40703.3459209005,368766.8705
618,Poland,2010,9.51158774515878,12597.862389964099,322019.4679
619,Ukraine,2010,2.8836779188702204,2965.1423654977098,292045.0037
620,Turkey,2010,14.352463265994402,10672.0548208629,286945.497
621,Spain,2010,14.3957846525821,30736.6278530812,288467.1186
622,Thailand,2010,22.6548789278903,5075.30217639529,287607.2808
623,Taiwan,2010,,,253561.806
624,Kazakhstan,2010,1.3823635639078602,9070.64997199985,227737.5143
625,Egypt,2010,,,226716.5867
626,Malaysia,2010,3.8190421365563,9071.35698672103,210645.6864
627,Venezuela,2010,,,201131.9072
628,Argentina,2010,8.9614455080753,10276.2604977053,181604.9125
629,Netherlands,2010,3.87550136964849,50338.2548273725,180006.5255
630,China,2011,16.386590597533697,4971.544928635,9110978.801
631,United States,2011,8.164451250524401,48783.4685866408,5402397.461
632,India,2011,38.9347529165063,1416.40339128641,2256834.277
633,Russia,2011,,,1679728.439
634,Japan,2011,4.695860118739611,44538.708086390194,1176405.183
635,Germany,2011,11.394356053882802,44125.3314116503,740873.562
636,Iran,2011,,,635988.2232
637,South Korea,2011,,,577738.4649
638,Canada,2011,22.6517414524734,48456.9645742468,535190.1036
639,South Africa,2011,16.864874170227402,7416.71618531578,519286.7353
640,Indonesia,2011,38.954145089120495,3262.7486126075,518681.5042
641,Saudi Arabia,2011,0.00684122090524335,20575.4979506353,503272.2886
642,Mexico,2011,9.066176843789199,9183.32807775507,459525.7857
643,United Kingdom,2011,4.48456676836183,39150.756018511296,457913.9932
644,Brazil,2011,45.468544658379706,11559.2122714428,424368.3867
645,Italy,2011,11.9049412197828,35994.1335816766,399579.4343
646,Australia,2011,8.47219788520597,52372.1545375312,392137.671
647,France,2011,10.839570261549198,41349.1915705484,344110.7036
648,Poland,2011,10.4590133466679,13222.8149952841,335209.3937
649,Ukraine,2011,2.73806565571154,3138.4650700149396,312817.104
650,Turkey,2011,12.794167430095598,11683.226418998502,309654.7974
651,Spain,2011,14.7459262728476,30321.7048688993,294814.2855
652,Thailand,2011,22.7555254641852,5093.58050034404,285607.0687
653,Taiwan,2011,,,256456.8955
654,Kazakhstan,2011,1.3819193052246899,9603.593250427091,234643.3225
655,Egypt,2011,,,226851.6181
656,Malaysia,2011,4.10776273576793,9377.18756674544,210483.0747
657,Venezuela,2011,,,207033.0627
658,Argentina,2011,10.1168481145891,10780.0156577357,195557.7741
659,Netherlands,2011,4.699750372447441,50937.5529376309,168407.7729
